{
    "docs": [
        {
            "location": "/", 
            "text": "Welcome to MkDocs\n\n\nFor full documentation visit \nmkdocs.org\n.\n\n\nCommands\n\n\n\n\nmkdocs new [dir-name]\n - Create a new project.\n\n\nmkdocs serve\n - Start the live-reloading docs server.\n\n\nmkdocs build\n - Build the documentation site.\n\n\nmkdocs help\n - Print this help message.\n\n\n\n\nProject layout\n\n\nmkdocs.yml    # The configuration file.\ndocs/\n    index.md  # The documentation homepage.\n    ...       # Other markdown pages, images and other files.", 
            "title": "Home"
        }, 
        {
            "location": "/#welcome-to-mkdocs", 
            "text": "For full documentation visit  mkdocs.org .", 
            "title": "Welcome to MkDocs"
        }, 
        {
            "location": "/#commands", 
            "text": "mkdocs new [dir-name]  - Create a new project.  mkdocs serve  - Start the live-reloading docs server.  mkdocs build  - Build the documentation site.  mkdocs help  - Print this help message.", 
            "title": "Commands"
        }, 
        {
            "location": "/#project-layout", 
            "text": "mkdocs.yml    # The configuration file.\ndocs/\n    index.md  # The documentation homepage.\n    ...       # Other markdown pages, images and other files.", 
            "title": "Project layout"
        }, 
        {
            "location": "/demo/", 
            "text": "Bitbucket Supported Markdown for READMEs, comments, and Wiki\n\n\nMarkdown\n for readmes is pretty popular.  So, I've given you a demo\nhere of all the markup we support. In some cases, I copied the doc/examples entirely from the Fireball Markdown site. \n\n\nI didn't duplicate all the Markdown doc everything tho. For the entire docs and a deeper explanation of Markdown, you still need to go to the \nMarkdown\n site.\n\n\nYou can also use \nBitbucket mark up\n in comments, issues, and commit messages.\n\n\nOn this page:\n\n\n\n\n\n\nSpan Elements\n\n\n\n\n\n\nEmphasis\n\n\n\n\n\n\nPreformatted code\n\n\n\n\n\n\nLinks\n\n\n\n\n\n\nImages\n\n\n\n\n\n\n\n\n\n\nBlock Elements\n\n\n\n\n\n\nHeadings\n\n\n\n\n\n\nParagraphs and blockquotes\n\n\n\n\n\n\nLists\n\n\n\n\n\n\nTables\n\n\n\n\n\n\nCode and Syntax highlighting\n\n\n\n\n\n\nHorizontal rules\n\n\n\n\n\n\n\n\n\n\n\n\nBitbucket does NOT support\n\n\nPlease note, we don't support arbitrary HTML in Markdown, for example \ntable\n tags. Instead, we use \n\nsafe mode\n. Safe mode requires that you replace, remove, or escape HTML tags appropriately.\n\n\n\n\nSpan Elements\n\n\nThese elements occur within a line of text.  So, for example font changes or links.\n\n\nEmphasis\n\n\nMarkdown treats * (asterisk) and _ (underscores) as emphasis markers. \n\n\nsingle asterisks\n\n\nsingle underscores\n\n\ndouble asterisks\n\n\ndouble underscores\n\n\nAll are created from this:\n\n\n*single asterisks*\n\n_single underscores_\n\n**double asterisks**\n\n__double underscores__\n\n\n\nYou must use the same character must be used to open and close an emphasis span. Emphasis can be used in the mi\ndd\nle of a word.\n\n\nEmphasis can be used in the mi*dd*le of a word.\n\n\n\nBut if you surround an * or _ with spaces, it\u2019ll be treated as a literal asterisk or underscore.\n\n\nTo produce a literal asterisk or underscore at a position where it would otherwise be used as an emphasis delimiter, you can backslash escape it:\n\n\n\\*this text is surrounded by literal asterisks\\*\n\n\n\nPreformatted code\n\n\nTo indicate a span of code, wrap it with \n`\n (backtick). Unlike a pre-formatted code block, a code span indicates code within a normal paragraph. For example:\n\n\nUse the \nprintf()\n function.\n\n\nis produced from:\n\n\nUse the `printf()` function.\n\n\n\nTo include a literal backtick character within a code span, you can use multiple backticks as the opening and closing delimiters:\n\n\nThere is a literal backtick (`) here.\n   \n\n\nLinks\n\n\nMarkdown supports inline and reference links. In both styles, the link text is delimited by [square brackets]. To create an inline link, use this syntax:\n\n\n[ Text for the link ](URL)\n\n\n\nSo an inline link to \nYahoo\n looks like this:\n\n\nSo an inline link to [Yahoo](http://www.yahoo.com) looks like this:\n\n\n\nReference-style links use a second set of square brackets, inside which you place a label of your choosing to identify the link:\n\n\nThis is [an example][id] reference-style link.\n\n\n\nWhich gives you a link like this:\n\n\nThis is \nan example\n reference-style link.\n\n\nElsewhere in the document, usually at the bottom of the file, you define your link label on a line by itself:\n\n\n[id]: http://example.com/  \"Optional Title Here\"\n\n\n\nLinks can get pretty fancy, so if you want the long form version, visit the \n official \nMarkdown\n docs.\n\n\nImages\n\n\nMarkdown uses an image syntax that is intended to resemble the syntax for links, allowing for two styles: inline and reference. Images appear like this:\n\n\n\n\n![Alt text](http://www.addictedtoibiza.com/wp-content/uploads/2012/12/example.png)\n\n![Alt text](http://www.addictedtoibiza.com/wp-content/uploads/2012/12/example.png \"Optional title\")\n\n\n\n\n\nBlock Elements\n\n\nThese are elements that are a single or multiple lines in length\n\n\nHeadings\n\n\nYou can create Atx-style headings by prefixing with a # (hash mark)\n\n\nHeading 1 markup  \n# Heading 1\n\n\n\n\nHeading 2 markup  \n## Heading 2\n\n\n\n\nHeading 3 markup   \n### Heading 3\n\n\n\n\nHeading 4 markup  \n#### Heading 4\n\n\n\n\nHeading 5 markup  \n##### Heading 5\n\n\n\n\nHeading 6 markup  \n###### Heading 6\n\n\n\n\nYou can also create Setext-style headings which have two levels.\n\n\nLevel 1 markup use an equal sign = (equal sign)\n\n\n Level 1 markup use an equal sign = (equal sign)     \n ==============================\n\n\n\nLevel 2 markup uses - (dashes)\n\n\nLevel 2 markup uses - (dashes) \n-------------\n\n\n\nPARAGRAPHS and BLOCKQUOTES\n\n\nA paragraph is one or more consecutive lines of text separated by one or more\nblank lines. A blank line contains nothing but spaces or tabs. Do not indent\nnormal paragraphs with spaces or tabs.\n\n\nThis is one paragraph.\n\n\nThis is a second.\n\n\nThis is one paragraph.\n\nThis is a second.\n\n\n\nMarkdown uses email-style \n (greater than) characters for blockquoting. If you\u2019re familiar with quoting passages of text in an email message, then you know how to create a blockquote in Markdown. It looks best if you hard wrap the text and put a \n before every line:\n\n\n\n\nThis is a blockquote with two paragraphs. Lorem ipsum dolor sit amet,\nconsectetuer adipiscing elit. Aliquam hendrerit mi posuere lectus.\n\n\nDonec sit amet nisl. Aliquam semper ipsum sit amet velit. Suspendisse\nid sem consectetuer libero luctus adipiscing.\n\n\n\n\n This is a blockquote with two paragraphs. Lorem ipsum dolor sit amet,\n\n consectetuer adipiscing elit. Aliquam hendrerit mi posuere lectus.\n\n \n\n Donec sit amet nisl. Aliquam semper ipsum sit amet velit. Suspendisse\n\n id sem consectetuer libero luctus adipiscing.\n\n\n\nBlockquotes can be nested (i.e. a blockquote-in-a-blockquote):\n\n\n\n\nThis is the first level of quoting.\n\n\n\n\nThis is nested blockquote.\n\n\n\n\nBack to the first level.\n\n\n\n\n This is the first level of quoting.\n\n\n\n \n This is nested blockquote.\n\n\n\n Back to the first level.\n\n\n\nBlockquotes can contain other Markdown elements, including headers, lists, and code blocks:\n\n\n\n\nThis is a header.\n\n\n\n\nThis is the first list item.\n\n\nThis is the second list item.\n\n\n\n\nHere's some example code:\n\n\nreturn shell_exec(\"echo $input | $markdown_script\");\n\n\n\n\n\n ## This is a header.\n\n \n\n 1.   This is the first list item.\n\n 2.   This is the second list item.\n\n \n\n Here's some example code:\n\n \n\n     return shell_exec(\"echo $input | $markdown_script\");\n\n\n\nLists\n\n\nMarkdown supports ordered (numbered) and unordered (bulleted) lists.  List markers typically start at the left margin, but may be indented by up to three spaces. List markers must be followed by one or more spaces or a tab.\n\n\nForm bulleted lists with any of * (asterisk), + (plus), or - (dash). You can one or any or mix of these to form a list:\n\n\n\n\nRed \n\n\nGreen \n\n\nBlue\n* Red\n+ Green\n- Blue\n\n\n\n\n\n\n\nOrdered lists require a numeric character followed by a . (period).\n\n\n\n\nItem one\n\n\nItem two \n\n\nItem three\n1. Item one\n1. Item two \n1. Item three\n\n\n\n\n\n\n\nNotice the actual value of the number doesn't matter in the list result. However, for readability better to use this markup:\n\n\n    1. Item one\n    2. Item two \n    3. Item three\n\n\n\nLists can be embedded in lists. List items may consist of multiple paragraphs. Each subsequent paragraph in a list item must be indented by either 4 spaces or one tab:\n\n\n\n\nRed \n\n\nGreen \n\n\ndark  green \n\n\nlime  \n\n\n\n\n\n\n\n\nBlue      \n\n\n\n\nItem one\n\n\nsubitem 1 \n\n\nsubitem 2\n\n\n\n\n\n\n\n\nItem two \n\n\nThis is is a first paragraph. \n\n\n\n\nGreen \n\n\nBlue\n\n\n\n\nThis is a second paragraph.\n\n\n\n\n\n\nItem three\n\n\n\n\n\n\n\n\n\n\nThe code for these embedded lists or paragraphs is:\n\n\n        * Red \n        + Green \n            * dark  green \n            * lime  \n        - Blue      \n            1. Item one\n                1. subitem 1\n                1. subitem 2\n            1. Item two\n\n                This is is a first paragraph.\n\n                * Green \n                * Blue\n\n                This is a second paragraph.\n\n            1. Item three\n\n\n\nYou can also embed blockquotes in a list.\n\n\n\n\nGreen\n\n\nWhat is this?  It is embedded blockquote.  Mix 'em and match 'em.\n\n\n\n\n\n\nBlue\n\n\nRed\n* Green\n\n What is this?  It is embedded blockquote.  Mix 'em and match 'em.\n* Blue\n* Red\n\n\n\n\n\n\n\nTables\n\n\nBitbucket does not support \nhtml\n so you need to use the - (dash) and the | (pipe) symbols to construct a table. The first line contains column headers. Separate columns with the pipe symbol.\n\n\nThe  second line must be a mandatory separator line between the headers and the content. Subsequent lines are table rows. Columns are always separated by the pipe (|) character.  For example this table:\n\n\n\n\n\n\n\n\nFirst Header\n\n\nSecond Header\n\n\n\n\n\n\n\n\n\n\nContent Cell\n\n\nContent Cell\n\n\n\n\n\n\nContent Cell\n\n\nContent Cell\n\n\n\n\n\n\n\n\nComes from this code:\n\n\nFirst Header  | Second Header\n------------- | -------------\nContent Cell  | Content Cell\nContent Cell  | Content Cell\n\n\n\nYou can only put simple lines in a table.\n\n\nYou can specify alignment for each column by adding colons to separator lines. A colon at the left of the separator line, left-aligns the column. A colon on the right, right-aligns the column. Add colons to both sides to center the column is center-aligned.\n\n\n\n\n\n\n\n\nRight\n\n\nLeft\n\n\nCenter\n\n\n\n\n\n\n\n\n\n\nComputer\n\n\n$1600\n\n\none\n\n\n\n\n\n\nPhone\n\n\n$12\n\n\nthree\n\n\n\n\n\n\nPipe\n\n\n$1\n\n\neleven\n\n\n\n\n\n\n\n\nRight     | Left   | Center \n---------:| :----- |:-----:\nComputer  |  $1600 | one\nPhone     |    $12 | three\nPipe      |     $1 | eleven\n\n\n\nYou can apply inline formatting (span-level changes such as fonts or links) to the content of each cell using regular Markdown syntax:\n\n\n\n\n\n\n\n\nFunction name\n\n\nDescription\n\n\n\n\n\n\n\n\n\n\nhelp()\n\n\nDisplay the \nhelp\n window.\n\n\n\n\n\n\ndestroy()\n\n\nDestroy your computer!\n\n\n\n\n\n\n\n\n| Function name | Description                    |\n| ------------- | ------------------------------ |\n| `help()`      | Display the __help__ window.   |\n| `destroy()`   | **Destroy your computer!**     |\n\n\n\n\n\nCode and Syntax highlighting\n\n\nPre-formatted code blocks are used for writing about programming or markup source code. Rather than forming normal paragraphs, the code block linesare interpreted literally.  Markdown wraps a code block in both \npre\n and \ncode\n tags.\n\n\nTo produce a code block in Markdown, indent every line of the block by at least 4 spaces or 1 tab. For :\n\n\nThis is a normal paragraph:\n\n\nThis is a code block.\n\n\n\nThe code reveals the indentation.\n\n\n    This is a normal paragraph:\n\n        This is a code block.\n\n\n\nA code block continues until it reaches a line that is not indented (or the end of the page).\n\n\nWithin a code block, \n (ampersands) and \n \n (angle brackets) are automatically converted into HTML entities. This makes it very easy to include example HTML source code using Markdown \u2014 just paste it and indent it. Markdown will handle the hassle of encoding the ampersands and angle brackets. For example, this:\n\n\nHere is an example of AppleScript:\n\n\n\np\nHere is an example of AppleScript:\n/p\n\n\n\n\nTo produce a code block in Markdown, simply indent every line of the block by at least 4 spaces or 1 tab. For example, given this input:\n\n\nYou can also highlight snippets of text (Bitbucket uses the excellent \nPygments\n library) to allow you to use code highlighting  Here's an example of some Python code:\n\n\n#!python\n#\ndef wiki_rocks(text): formatter = lambda t: \nfunky\n+t return formatter(text)        \n\n\n\n\nTo do this, do not indent the block. Start the block with \n```\n three ticks. Then, provide the comment with the type of syntax you are using.  There is a \nthe vast library of Pygment lexers\n. Bitbucket accepts the 'short name' or the 'mimetype' of anything in there.\n\n\nYou can also use a fence style for code.\n\n\nThis is a code block, fenced-style\n\n\n\n\nWhich you create with this code:\n\n\n~~~~\nThis is a code block, fenced-style\n~~~~\n\n\n\nSee \nMichel Fortin's blog\n to try out more examples of this coding style. Not everything he demos is guaranteed to work though.\n\n\n\n\nHorizontal Rules\n\n\nYou can produce a horizontal line with any of the following codes:\n\n\n* * *\n\n***\n\n*****\n\n- - - -\n\n-----------------------\n\n\n\nThe output looks like this:", 
            "title": "Demo"
        }, 
        {
            "location": "/demo/#bitbucket-supported-markdown-for-readmes-comments-and-wiki", 
            "text": "Markdown  for readmes is pretty popular.  So, I've given you a demo\nhere of all the markup we support. In some cases, I copied the doc/examples entirely from the Fireball Markdown site.   I didn't duplicate all the Markdown doc everything tho. For the entire docs and a deeper explanation of Markdown, you still need to go to the  Markdown  site.  You can also use  Bitbucket mark up  in comments, issues, and commit messages.  On this page:    Span Elements    Emphasis    Preformatted code    Links    Images      Block Elements    Headings    Paragraphs and blockquotes    Lists    Tables    Code and Syntax highlighting    Horizontal rules", 
            "title": "Bitbucket Supported Markdown for READMEs, comments, and Wiki"
        }, 
        {
            "location": "/demo/#bitbucket-does-not-support", 
            "text": "Please note, we don't support arbitrary HTML in Markdown, for example  table  tags. Instead, we use  safe mode . Safe mode requires that you replace, remove, or escape HTML tags appropriately.", 
            "title": "Bitbucket does NOT support"
        }, 
        {
            "location": "/demo/#span-elements", 
            "text": "These elements occur within a line of text.  So, for example font changes or links.", 
            "title": "Span Elements"
        }, 
        {
            "location": "/demo/#emphasis", 
            "text": "Markdown treats * (asterisk) and _ (underscores) as emphasis markers.   single asterisks  single underscores  double asterisks  double underscores  All are created from this:  *single asterisks*\n\n_single underscores_\n\n**double asterisks**\n\n__double underscores__  You must use the same character must be used to open and close an emphasis span. Emphasis can be used in the mi dd le of a word.  Emphasis can be used in the mi*dd*le of a word.  But if you surround an * or _ with spaces, it\u2019ll be treated as a literal asterisk or underscore.  To produce a literal asterisk or underscore at a position where it would otherwise be used as an emphasis delimiter, you can backslash escape it:  \\*this text is surrounded by literal asterisks\\*", 
            "title": "Emphasis"
        }, 
        {
            "location": "/demo/#preformatted-code", 
            "text": "To indicate a span of code, wrap it with  `  (backtick). Unlike a pre-formatted code block, a code span indicates code within a normal paragraph. For example:  Use the  printf()  function.  is produced from:  Use the `printf()` function.  To include a literal backtick character within a code span, you can use multiple backticks as the opening and closing delimiters:  There is a literal backtick (`) here.", 
            "title": "Preformatted code"
        }, 
        {
            "location": "/demo/#links", 
            "text": "Markdown supports inline and reference links. In both styles, the link text is delimited by [square brackets]. To create an inline link, use this syntax:  [ Text for the link ](URL)  So an inline link to  Yahoo  looks like this:  So an inline link to [Yahoo](http://www.yahoo.com) looks like this:  Reference-style links use a second set of square brackets, inside which you place a label of your choosing to identify the link:  This is [an example][id] reference-style link.  Which gives you a link like this:  This is  an example  reference-style link.  Elsewhere in the document, usually at the bottom of the file, you define your link label on a line by itself:  [id]: http://example.com/  \"Optional Title Here\"  Links can get pretty fancy, so if you want the long form version, visit the \n official  Markdown  docs.", 
            "title": "Links"
        }, 
        {
            "location": "/demo/#images", 
            "text": "Markdown uses an image syntax that is intended to resemble the syntax for links, allowing for two styles: inline and reference. Images appear like this:   ![Alt text](http://www.addictedtoibiza.com/wp-content/uploads/2012/12/example.png)\n\n![Alt text](http://www.addictedtoibiza.com/wp-content/uploads/2012/12/example.png \"Optional title\")", 
            "title": "Images"
        }, 
        {
            "location": "/demo/#block-elements", 
            "text": "These are elements that are a single or multiple lines in length", 
            "title": "Block Elements"
        }, 
        {
            "location": "/demo/#headings", 
            "text": "You can create Atx-style headings by prefixing with a # (hash mark)", 
            "title": "Headings"
        }, 
        {
            "location": "/demo/#heading-1-markup-heading-1", 
            "text": "", 
            "title": "Heading 1 markup  # Heading 1"
        }, 
        {
            "location": "/demo/#heading-2-markup-heading-2", 
            "text": "", 
            "title": "Heading 2 markup  ## Heading 2"
        }, 
        {
            "location": "/demo/#level-1-markup-use-an-equal-sign-equal-sign", 
            "text": "Level 1 markup use an equal sign = (equal sign)     \n ==============================", 
            "title": "Level 1 markup use an equal sign = (equal sign)"
        }, 
        {
            "location": "/demo/#level-2-markup-uses-dashes", 
            "text": "Level 2 markup uses - (dashes) \n-------------", 
            "title": "Level 2 markup uses - (dashes)"
        }, 
        {
            "location": "/demo/#paragraphs-and-blockquotes", 
            "text": "A paragraph is one or more consecutive lines of text separated by one or more\nblank lines. A blank line contains nothing but spaces or tabs. Do not indent\nnormal paragraphs with spaces or tabs.  This is one paragraph.  This is a second.  This is one paragraph.\n\nThis is a second.  Markdown uses email-style   (greater than) characters for blockquoting. If you\u2019re familiar with quoting passages of text in an email message, then you know how to create a blockquote in Markdown. It looks best if you hard wrap the text and put a   before every line:   This is a blockquote with two paragraphs. Lorem ipsum dolor sit amet,\nconsectetuer adipiscing elit. Aliquam hendrerit mi posuere lectus.  Donec sit amet nisl. Aliquam semper ipsum sit amet velit. Suspendisse\nid sem consectetuer libero luctus adipiscing.    This is a blockquote with two paragraphs. Lorem ipsum dolor sit amet,  consectetuer adipiscing elit. Aliquam hendrerit mi posuere lectus.    Donec sit amet nisl. Aliquam semper ipsum sit amet velit. Suspendisse  id sem consectetuer libero luctus adipiscing.  Blockquotes can be nested (i.e. a blockquote-in-a-blockquote):   This is the first level of quoting.   This is nested blockquote.   Back to the first level.    This is the first level of quoting.     This is nested blockquote.   Back to the first level.  Blockquotes can contain other Markdown elements, including headers, lists, and code blocks:", 
            "title": "PARAGRAPHS and BLOCKQUOTES"
        }, 
        {
            "location": "/demo/#this-is-a-header", 
            "text": "This is the first list item.  This is the second list item.   Here's some example code:  return shell_exec(\"echo $input | $markdown_script\");    ## This is a header.    1.   This is the first list item.  2.   This is the second list item.    Here's some example code:        return shell_exec(\"echo $input | $markdown_script\");", 
            "title": "This is a header."
        }, 
        {
            "location": "/demo/#lists", 
            "text": "Markdown supports ordered (numbered) and unordered (bulleted) lists.  List markers typically start at the left margin, but may be indented by up to three spaces. List markers must be followed by one or more spaces or a tab.  Form bulleted lists with any of * (asterisk), + (plus), or - (dash). You can one or any or mix of these to form a list:   Red   Green   Blue * Red\n+ Green\n- Blue    Ordered lists require a numeric character followed by a . (period).   Item one  Item two   Item three 1. Item one\n1. Item two \n1. Item three    Notice the actual value of the number doesn't matter in the list result. However, for readability better to use this markup:      1. Item one\n    2. Item two \n    3. Item three  Lists can be embedded in lists. List items may consist of multiple paragraphs. Each subsequent paragraph in a list item must be indented by either 4 spaces or one tab:   Red   Green   dark  green   lime       Blue         Item one  subitem 1   subitem 2     Item two   This is is a first paragraph.    Green   Blue   This is a second paragraph.    Item three      The code for these embedded lists or paragraphs is:          * Red \n        + Green \n            * dark  green \n            * lime  \n        - Blue      \n            1. Item one\n                1. subitem 1\n                1. subitem 2\n            1. Item two\n\n                This is is a first paragraph.\n\n                * Green \n                * Blue\n\n                This is a second paragraph.\n\n            1. Item three  You can also embed blockquotes in a list.   Green  What is this?  It is embedded blockquote.  Mix 'em and match 'em.    Blue  Red * Green  What is this?  It is embedded blockquote.  Mix 'em and match 'em.\n* Blue\n* Red", 
            "title": "Lists"
        }, 
        {
            "location": "/demo/#tables", 
            "text": "Bitbucket does not support  html  so you need to use the - (dash) and the | (pipe) symbols to construct a table. The first line contains column headers. Separate columns with the pipe symbol.  The  second line must be a mandatory separator line between the headers and the content. Subsequent lines are table rows. Columns are always separated by the pipe (|) character.  For example this table:     First Header  Second Header      Content Cell  Content Cell    Content Cell  Content Cell     Comes from this code:  First Header  | Second Header\n------------- | -------------\nContent Cell  | Content Cell\nContent Cell  | Content Cell  You can only put simple lines in a table.  You can specify alignment for each column by adding colons to separator lines. A colon at the left of the separator line, left-aligns the column. A colon on the right, right-aligns the column. Add colons to both sides to center the column is center-aligned.     Right  Left  Center      Computer  $1600  one    Phone  $12  three    Pipe  $1  eleven     Right     | Left   | Center \n---------:| :----- |:-----:\nComputer  |  $1600 | one\nPhone     |    $12 | three\nPipe      |     $1 | eleven  You can apply inline formatting (span-level changes such as fonts or links) to the content of each cell using regular Markdown syntax:     Function name  Description      help()  Display the  help  window.    destroy()  Destroy your computer!     | Function name | Description                    |\n| ------------- | ------------------------------ |\n| `help()`      | Display the __help__ window.   |\n| `destroy()`   | **Destroy your computer!**     |", 
            "title": "Tables"
        }, 
        {
            "location": "/demo/#code-and-syntax-highlighting", 
            "text": "Pre-formatted code blocks are used for writing about programming or markup source code. Rather than forming normal paragraphs, the code block linesare interpreted literally.  Markdown wraps a code block in both  pre  and  code  tags.  To produce a code block in Markdown, indent every line of the block by at least 4 spaces or 1 tab. For :  This is a normal paragraph:  This is a code block.  The code reveals the indentation.      This is a normal paragraph:\n\n        This is a code block.  A code block continues until it reaches a line that is not indented (or the end of the page).  Within a code block,   (ampersands) and     (angle brackets) are automatically converted into HTML entities. This makes it very easy to include example HTML source code using Markdown \u2014 just paste it and indent it. Markdown will handle the hassle of encoding the ampersands and angle brackets. For example, this:  Here is an example of AppleScript:  p Here is an example of AppleScript: /p   To produce a code block in Markdown, simply indent every line of the block by at least 4 spaces or 1 tab. For example, given this input:  You can also highlight snippets of text (Bitbucket uses the excellent  Pygments  library) to allow you to use code highlighting  Here's an example of some Python code:  #!python\n#\ndef wiki_rocks(text): formatter = lambda t:  funky +t return formatter(text)          To do this, do not indent the block. Start the block with  ```  three ticks. Then, provide the comment with the type of syntax you are using.  There is a  the vast library of Pygment lexers . Bitbucket accepts the 'short name' or the 'mimetype' of anything in there.  You can also use a fence style for code.  This is a code block, fenced-style  Which you create with this code:  ~~~~\nThis is a code block, fenced-style\n~~~~  See  Michel Fortin's blog  to try out more examples of this coding style. Not everything he demos is guaranteed to work though.", 
            "title": "Code and Syntax highlighting"
        }, 
        {
            "location": "/demo/#horizontal-rules", 
            "text": "You can produce a horizontal line with any of the following codes:  * * *\n\n***\n\n*****\n\n- - - -\n\n-----------------------  The output looks like this:", 
            "title": "Horizontal Rules"
        }, 
        {
            "location": "/headers/", 
            "text": "H1 Header\n\n\nThis paragraph is under h1 header.\n\n\nH2 Header\n\n\nThis paragraph is under h2 header and a little bit longer.\n\n\nH3 Header\n\n\nAnd this paragraph is under h3 header. I wonder how it is rendered under different CSS sytles...\n\n\nH4 Header\n\n\nUnder this header there are two paragraphs. This is the first one.\n\n\nAnd this is the second and the last one.\n\n\nH5 Header\n\n\nJust like the Red Leader said, Almost There. But he wasn't successful.\n\n\nWe are running out of headers...\n\n\nH6 Header\n\n\nFinally there we are!! This is the last header.\n\n\nThis presentation will end with a horizantal ruler \nhr", 
            "title": "Headers"
        }, 
        {
            "location": "/headers/#h1-header", 
            "text": "This paragraph is under h1 header.", 
            "title": "H1 Header"
        }, 
        {
            "location": "/headers/#h2-header", 
            "text": "This paragraph is under h2 header and a little bit longer.  H3 Header  And this paragraph is under h3 header. I wonder how it is rendered under different CSS sytles...  H4 Header  Under this header there are two paragraphs. This is the first one.  And this is the second and the last one.  H5 Header  Just like the Red Leader said, Almost There. But he wasn't successful.  We are running out of headers...  H6 Header  Finally there we are!! This is the last header.  This presentation will end with a horizantal ruler  hr", 
            "title": "H2 Header"
        }
    ]
}